{
  "users": [
    {
      "id": 1,
      "username": "ynstellioglu",
      "email": "yns.tellioglu@gmail.com",
      "password": "123456"
    }
  ],
  "appointments": [
    {
      "id": 1,
      "userId": 1,
      "userName": "ynstellioglu",
      "appointmentDate": "2020-09-30",
      "appointmentTime": "2020-09-30",
      "Note": "123456"
    }
  ]
}